Chapter 10 Import Paracou dataset | Metradica
…
            Metradica

Chapter 10 Import Paracou dataset

il manque encore les quelques individus résoltés avec Sylvain dans les indv de Paracou.

## # A tibble: 265 x 31
##    RWCnr_original idTree  Plot SubPlot TreeFieldNum SpecCode_CorrBota
##    <chr>           <dbl> <dbl>   <dbl>        <dbl> <chr>            
##  1 M1             145493    15       1          182 Iry.hos          
##  2 M2             147663    15       3          178 Gus.hex          
##  3 M3             147783    15       3          298 Iry.hos          
##  4 M4             147625    15       3          140 Tac.mel          
##  5 M5             148586    15       3         1103 Chr.pri          
##  6 M6             149072    15       4          369 Con.gui          
##  7 M7             146131    15       1          824 Lic.mem          
##  8 M8             149660    15       4          960 Iry.hos          
##  9 M9             146342    15       2           84 Hym.het          
## 10 M10            146466    15       2          209 Con.gui          
## # ... with 255 more rows, and 25 more variables: spName_CorrBota.x <chr>,
## #   Genus_CorrBota <chr>, Species_CorrBota <chr>, Family_CorrBota <chr>,
## #   Tree_Dawkins <dbl>, Tree_Height <dbl>, Branch_Dawkins <dbl>,
## #   Branch_Height <dbl>, Branch_Position_crown <chr>, Habitat_preference <chr>,
## #   Habitat_real <chr>, ...1 <dbl>, spName_CorrBota.y <chr>,
## #   My_LSWC_E.per_corr <dbl>, My_RWC_E.per_corr <dbl>, My_ptlp <dbl>,
## #   My_posm <dbl>, My_gmin.slope <dbl>, My_gmin_manual <dbl>, ...
…
